{
  "object_kind": "merge_request",
  "event_type": "merge_request",
  "user": {
    "name": "Steve Azzopardi",
    "username": "steveazz",
    "avatar_url": "https://secure.gravatar.com/avatar/4a5eeed7ec5c80642df9ee708bb496d7?s=80\u0026d=identicon",
    "email": "sazzopardi@gitlab.com"
  },
  "project": {
    "id": 17349153,
    "name": "merge-request-bot",
    "description": "",
    "web_url": "https://gitlab.com/steveazz/merge-request-bot",
    "avatar_url": null,
    "git_ssh_url": "git@gitlab.com:steveazz/merge-request-bot.git",
    "git_http_url": "https://gitlab.com/steveazz/merge-request-bot.git",
    "namespace": "Steve Azzopardi",
    "visibility_level": 20,
    "path_with_namespace": "steveazz/merge-request-bot",
    "default_branch": "master",
    "ci_config_path": null,
    "homepage": "https://gitlab.com/steveazz/merge-request-bot",
    "url": "git@gitlab.com:steveazz/merge-request-bot.git",
    "ssh_url": "git@gitlab.com:steveazz/merge-request-bot.git",
    "http_url": "https://gitlab.com/steveazz/merge-request-bot.git"
  },
  "object_attributes": {
    "assignee_id": null,
    "author_id": 210928,
    "created_at": "2020-03-21 19:04:20 UTC",
    "description": "",
    "head_pipeline_id": null,
    "id": 53209987,
    "iid": 1,
    "last_edited_at": null,
    "last_edited_by_id": null,
    "merge_commit_sha": null,
    "merge_error": null,
    "merge_params": {
      "force_remove_source_branch": "1"
    },
    "merge_status": "unchecked",
    "merge_user_id": null,
    "merge_when_pipeline_succeeds": false,
    "milestone_id": null,
    "source_branch": "test-branch",
    "source_project_id": 17349153,
    "state_id": 1,
    "target_branch": "master",
    "target_project_id": 17349153,
    "time_estimate": 0,
    "title": "WIP: Test branch",
    "updated_at": "2020-03-21 19:04:20 UTC",
    "updated_by_id": null,
    "url": "https://gitlab.com/steveazz/merge-request-bot/-/merge_requests/1",
    "source": {
      "id": 17349153,
      "name": "merge-request-bot",
      "description": "",
      "web_url": "https://gitlab.com/steveazz/merge-request-bot",
      "avatar_url": null,
      "git_ssh_url": "git@gitlab.com:steveazz/merge-request-bot.git",
      "git_http_url": "https://gitlab.com/steveazz/merge-request-bot.git",
      "namespace": "Steve Azzopardi",
      "visibility_level": 20,
      "path_with_namespace": "steveazz/merge-request-bot",
      "default_branch": "master",
      "ci_config_path": null,
      "homepage": "https://gitlab.com/steveazz/merge-request-bot",
      "url": "git@gitlab.com:steveazz/merge-request-bot.git",
      "ssh_url": "git@gitlab.com:steveazz/merge-request-bot.git",
      "http_url": "https://gitlab.com/steveazz/merge-request-bot.git"
    },
    "target": {
      "id": 17349153,
      "name": "merge-request-bot",
      "description": "",
      "web_url": "https://gitlab.com/steveazz/merge-request-bot",
      "avatar_url": null,
      "git_ssh_url": "git@gitlab.com:steveazz/merge-request-bot.git",
      "git_http_url": "https://gitlab.com/steveazz/merge-request-bot.git",
      "namespace": "Steve Azzopardi",
      "visibility_level": 20,
      "path_with_namespace": "steveazz/merge-request-bot",
      "default_branch": "master",
      "ci_config_path": null,
      "homepage": "https://gitlab.com/steveazz/merge-request-bot",
      "url": "git@gitlab.com:steveazz/merge-request-bot.git",
      "ssh_url": "git@gitlab.com:steveazz/merge-request-bot.git",
      "http_url": "https://gitlab.com/steveazz/merge-request-bot.git"
    },
    "last_commit": {
      "id": "f0eeb16bd6d808cfe2b7ea8c5c0f4f424954e09f",
      "message": "Use application runtime\n",
      "title": "Use application runtime",
      "timestamp": "2020-03-14T11:40:52+01:00",
      "url": "https://gitlab.com/steveazz/merge-request-bot/-/commit/f0eeb16bd6d808cfe2b7ea8c5c0f4f424954e09f",
      "author": {
        "name": "Steve Azzopardi",
        "email": "sazzopardi@gitlab.com"
      }
    },
    "work_in_progress": true,
    "total_time_spent": 0,
    "human_total_time_spent": null,
    "human_time_estimate": null,
    "assignee_ids": [],
    "state": "opened",
    "action": "open"
  },
  "labels": [],
  "changes": {
    "author_id": {
      "previous": null,
      "current": 210928
    },
    "created_at": {
      "previous": null,
      "current": "2020-03-21 19:04:20 UTC"
    },
    "description": {
      "previous": null,
      "current": ""
    },
    "id": {
      "previous": null,
      "current": 53209987
    },
    "iid": {
      "previous": null,
      "current": 1
    },
    "merge_params": {
      "previous": {},
      "current": {
        "force_remove_source_branch": "1"
      }
    },
    "source_branch": {
      "previous": null,
      "current": "test-branch"
    },
    "source_project_id": {
      "previous": null,
      "current": 17349153
    },
    "target_branch": {
      "previous": null,
      "current": "master"
    },
    "target_project_id": {
      "previous": null,
      "current": 17349153
    },
    "title": {
      "previous": null,
      "current": "WIP: Test branch"
    },
    "updated_at": {
      "previous": null,
      "current": "2020-03-21 19:04:20 UTC"
    },
    "total_time_spent": {
      "previous": null,
      "current": 0
    }
  },
  "repository": {
    "name": "merge-request-bot",
    "url": "git@gitlab.com:steveazz/merge-request-bot.git",
    "description": "",
    "homepage": "https://gitlab.com/steveazz/merge-request-bot"
  }
}
